INDEX VERSION 1.129+Z:\ACCESO_A_DATOS\.metadata\.plugins\org.eclipse.jdt.core
1631616599.index
245730303.index
2250812846.index
4122227026.index
3537799689.index
3193238650.index
220789872.index
1527409904.index
909861168.index
1392172246.index
3792966807.index
4085139182.index
2427601795.index
3322898943.index
1111690661.index
69564303.index
4217414876.index
1881185154.index
4157321706.index
